…
### Where the "Analysts" at?

I've been various types of "analysts" over the years so I'm curious to see what the earnings are like for occupations with "analyst" in the occupation name. Since there's no existing category for Analysts, I just filtered them out using `grepl()`. There are 9 unique occupations with Analyst in the name. Interestingly the vague occupation of "Business Analyst" isn't one of them. I did a quick search to see how the US Census came up with the list of occupations but didn't find anything. My best guess is that work titles like "Business Analyst" are lumped into one of the listed occupations—probably "Management analysts". In reality there are probably hundreds of titles with "Analyst", search LinkedIn if you don't believe me.

``` r
# find all occupations with "analyst"" in the name
analyst_jobs <- jobs_gender %>%
  filter(grepl("analyst", occupation))  %>%
  select(year, occupation, minor_category, total_earnings_female, total_earnings_male, total_workers)

analyst_jobs %>%
  arrange(desc(total_workers))
```

    ## # A tibble: 36 x 6
    ##     year occupation minor_category total_earnings_… total_earnings_…
    ##    <dbl> <chr>      <chr>                     <dbl>            <dbl>
    ##  1  2016 Managemen… Business and …            76338            91169
    ##  2  2015 Managemen… Business and …            72526            90316
    ##  3  2013 Managemen… Business and …            72006            89151
    ##  4  2014 Managemen… Business and …            72260            89368
    ##  5  2014 Computer … Computer and …            69406            81294
    ##  6  2016 Computer … Computer and …            72409            85192
    ##  7  2013 Computer … Computer and …            69346            81174
    ##  8  2015 Computer … Computer and …            70706            82774
    ##  9  2016 Market re… Business and …            64398            82565
    ## 10  2014 Market re… Business and …            60798            79902
    ## # … with 26 more rows, and 1 more variable: total_workers <dbl>
…
