…
### Looking at Total Number of Trips in 2018

Taking a look at total number of trips variable `total_num_trips` in 2018. The route with the most trips in 2018 is from BORDEAUX ST JEAN to PARIS MONTPARNASSE. Note from the printout for the tibble size that there were 130 routes in 2018.

``` r
routes_2018 <- trains %>% filter(year == 2018) %>%
  group_by(departure_station, arrival_station) %>%
  summarise(total_trips = sum(total_num_trips))

routes_2018 %>%  
  arrange(total_trips)
```

    ## # A tibble: 130 x 3
    ## # Groups:   departure_station [59]
    ##    departure_station    arrival_station      total_trips
    ##    <chr>                <chr>                      <dbl>
    ##  1 TOURCOING            BORDEAUX ST JEAN            1680
    ##  2 BORDEAUX ST JEAN     TOURCOING                   1698
    ##  3 TOURCOING            MARSEILLE ST CHARLES        1782
    ##  4 MARSEILLE ST CHARLES MADRID                      1824
    ##  5 MARSEILLE ST CHARLES TOURCOING                   1836
    ##  6 PARIS VAUGIRARD      RENNES                      1836
    ##  7 RENNES               PARIS VAUGIRARD             1842
    ##  8 MADRID               MARSEILLE ST CHARLES        1854
    ##  9 STRASBOURG           NANTES                      3012
    ## 10 NANTES               STRASBOURG                  3036
    ## # … with 120 more rows
…
The only reason that I'm "ok" with the chart is that the largest absolute difference between a departure-arrival pair and its reverse pair is 5508. This might be a fairly large number, but when it comes to the color scaling a difference of 5000 trips is not *that* distinguishable.

``` r
## Find the reverse number of trips and calculate the absoluate difference
routes_2018_dup <- routes_2018 %>%
  rename(rev_trips = total_trips)

left_join(routes_2018, routes_2018_dup, by = c("arrival_station" = "departure_station", "departure_station" = "arrival_station")) %>%
  mutate(difference = abs(total_trips - rev_trips)) %>%
  arrange(desc(difference))
```

    ## # A tibble: 130 x 5
    ## # Groups:   departure_station [59]
    ##    departure_station  arrival_station    total_trips rev_trips difference
    ##    <chr>              <chr>                    <dbl>     <dbl>      <dbl>
    ##  1 BORDEAUX ST JEAN   PARIS MONTPARNASSE       54270     48762       5508
    ##  2 PARIS MONTPARNASSE BORDEAUX ST JEAN         48762     54270       5508
    ##  3 AVIGNON TGV        PARIS LYON               36648     32274       4374
    ##  4 PARIS LYON         AVIGNON TGV              32274     36648       4374
    ##  5 MONTPELLIER        PARIS LYON               25314     21120       4194
    ##  6 PARIS LYON         MONTPELLIER              21120     25314       4194
    ##  7 LYON PART DIEU     MARNE LA VALLEE          19134     23040       3906
    ##  8 MARNE LA VALLEE    LYON PART DIEU           23040     19134       3906
    ##  9 NIMES              PARIS LYON               25356     21504       3852
    ## 10 PARIS LYON         NIMES                    21504     25356       3852
    ## # … with 120 more rows
…
